module gitlab.com/akordacorp/go-adobesign

go 1.21

require (
	github.com/google/go-querystring v1.1.0
	golang.org/x/oauth2 v0.15.0
)

require (
	github.com/golang/protobuf v1.5.3 // indirect
	google.golang.org/appengine v1.6.8 // indirect
	google.golang.org/protobuf v1.32.0 // indirect
)
